^C:\USERS\АДМИНИСТРАТОР\DROPBOX\POIS-13\ОСНОВЫ АЛГОРИТМИЗАЦИИ И ПРОГРАММИРОВАНИЯ\!LAB_YURI\BOOKSSTORECONSOLE\BOOKSSTORECONSOLE\BOOKSSTORECONSOLE\SOURCE.CPP
/c /ZI /nologo /W3 /WX- /sdl- /Od /Oy- /D WIN32 /D _DEBUG /D _CONSOLE /D _LIB /D _UNICODE /D UNICODE /Gm /EHsc /RTC1 /MDd /GS /fp:precise /Zc:wchar_t /Zc:forScope /Fo"DEBUG\\" /Fd"DEBUG\VC120.PDB" /Gd /TP /analyze- C:\USERS\АДМИНИСТРАТОР\DROPBOX\POIS-13\ОСНОВЫ АЛГОРИТМИЗАЦИИ И ПРОГРАММИРОВАНИЯ\!LAB_YURI\BOOKSSTORECONSOLE\BOOKSSTORECONSOLE\BOOKSSTORECONSOLE\SOURCE.CPP
^D:\DROPBOX\POIS-13\ОСНОВЫ АЛГОРИТМИЗАЦИИ И ПРОГРАММИРОВАНИЯ\!LAB_YURI\BOOKSSTORECONSOLE\BOOKSSTORECONSOLE\BOOKSSTORECONSOLE\SOURCE.CPP
/c /ZI /nologo /W3 /WX- /sdl- /Od /Oy- /D WIN32 /D _DEBUG /D _CONSOLE /D _LIB /D _UNICODE /D UNICODE /Gm /EHsc /RTC1 /MDd /GS /fp:precise /Zc:wchar_t /Zc:forScope /Fo"DEBUG\\" /Fd"DEBUG\VC120.PDB" /Gd /TP /analyze- D:\DROPBOX\POIS-13\ОСНОВЫ АЛГОРИТМИЗАЦИИ И ПРОГРАММИРОВАНИЯ\!LAB_YURI\BOOKSSTORECONSOLE\BOOKSSTORECONSOLE\BOOKSSTORECONSOLE\SOURCE.CPP
